{
    "gid": "ecowas",
    "acronym": "ECOWAS",
    "classifier": "ECOWAS",
    "domains": [
        "ECOWAS",
        "West Africa",
        "Africa"
    ],
    "name": "Economic Community of West African States (ECOWAS)",
    "description": "stablished on May 28 1975 via the treaty of Lagos, ECOWAS is a 15-member regional group with a mandate of promoting economic integration in all fields of activity of the constituting countries.",
    "names": [
        "Benin",
        "The Gambia",
        "Cabo Verde",
        "Cote D'Ivoire",
        "Ghana",
        "Guinea",
        "Guinea-Bissau",
        "Liberia",
        "Mali",
        "Niger",
        "Nigeria",
        "Senegal",
        "Sierra Leone",
        "Togo"
    ]
}