{
    "gid": "lics",
    "acronym": "LICs",
    "classifier": "World Bank",
    "domains": [
        "United Nations General Assembly"
    ],
    "name": "Low income Economies",
    "description": "Low Income Economies, a category established by the World Bank, for the 2021 fiscal year, are defined as those with a GNI per capita, calculated using the World Bank Atlas method ",
    "names": [
        "Afghanistan",
        "Guinea-Bissau",
        "Sierra Leone",
        "Burkina Faso",
        "Haiti",
        "Somalia",
        "Burundi",
        "Korea, Dem. People's Rep.",
        "South Sudan",
        "Central African Republic",
        "Liberia",
        "Sudan",
        "Chad",
        "Madagascar",
        "Syrian Arab Republic",
        "Congo, Dem. Rep",
        "Malawi",
        "Tajikistan",
        "Eritrea",
        "Mali",
        "Togo",
        "Ethiopia",
        "Mozambique",
        "Uganda",
        "Gambia, The",
        "Niger",
        "Yemen, Rep.",
        "Guinea",
        "Rwanda"
    ]
}